…
# Data Analysis

``` r
transaction_volume_by_minute %>%
  group_by(date) %>%
  summarise(sum(count)) 
```

    ## # A tibble: 79 × 2
    ##    date       `sum(count)`
    ##    <chr>             <int>
    ##  1 08/21/2023         2141
    ##  2 08/22/2023         1971
    ##  3 08/23/2023         2129
    ##  4 08/24/2023         2048
    ##  5 08/25/2023         1494
    ##  6 08/28/2023         2123
    ##  7 08/29/2023         2184
    ##  8 08/30/2023         2222
    ##  9 08/31/2023         2147
    ## 10 09/01/2023         1461
    ## # … with 69 more rows
…
``` r
transaction_volume_by_minute %>%
  group_by(minute_hour) %>%
  summarise(sum(count))
```

    ## # A tibble: 35 × 2
    ##    minute_hour `sum(count)`
    ##    <chr>              <int>
    ##  1 10:00-14            3690
    ##  2 10:15-29            1904
    ##  3 10:30-44             580
    ##  4 10:45-59            1022
    ##  5 11:00-14            8022
    ##  6 11:15-29            7485
    ##  7 11:30-44            9757
    ##  8 11:45-59            7549
    ##  9 12:00-14            9406
    ## 10 12:15-29           11132
    ## # … with 25 more rows

``` r
transaction_volume_by_minute %>%
  group_by(date_time) %>%
  summarise(sum(count))
```

    ## # A tibble: 2,262 × 2
    ##    date_time            `sum(count)`
    ##    <chr>                       <int>
    ##  1 08/21/2023, 10:00-14           47
    ##  2 08/21/2023, 10:15-29           35
    ##  3 08/21/2023, 10:30-44           18
    ##  4 08/21/2023, 10:45-59           22
    ##  5 08/21/2023, 11:00-14          132
    ##  6 08/21/2023, 11:15-29          126
    ##  7 08/21/2023, 11:30-44          129
    ##  8 08/21/2023, 11:45-59          126
    ##  9 08/21/2023, 12:00-14          171
    ## 10 08/21/2023, 12:15-29          182
    ## # … with 2,252 more rows
…
